…
## [1] -470.25027   72.97288   72.97288   72.97288   72.97288 -470.25027

Next we will attach this vector of the results to the test data so we can compare them to the actuals. We will compute the error, absolute error, and squared error.

test_data <- test_data %>%
  select(carat, price) %>%
  mutate(model_pred = pred) %>%
  mutate(error = (pred - price),
         abs_error = abs(pred - price),
         sq_error = (pred - price) ^ 2)
test_data

## # A tibble: 13,484 x 6
##    carat price model_pred  error abs_error sq_error
##    <dbl> <int>      <dbl>  <dbl>     <dbl>    <dbl>
##  1 0.230   327     -470.  -797.      797.   635608.
##  2 0.300   339       73.0 -266.      266.    70770.
##  3 0.300   351       73.0 -278.      278.    77299.
##  4 0.300   351       73.0 -278.      278.    77299.
##  5 0.300   351       73.0 -278.      278.    77299.
##  6 0.230   354     -470.  -824.      824.   679389.
##  7 0.240   355     -393.  -748.      748.   558976.
##  8 0.230   402     -470.  -872.      872.   760821.
##  9 0.230   402     -470.  -872.      872.   760821.
## 10 0.330   403      306.   -97.2      97.2    9451.
## # ... with 13,474 more rows
…
